1 10 20
100 200 125
201 210 89
900 1000 174
1 1 1
1 2 2
999999 999999 259
1564 1651 167
86215 98465 333
15 489 144
89 65 116
789 166 171
16548 165168 383
65489 16548 340
6461 4987 262
35469 98795 351
777 777 34
52488 29921 324
58876 24181 340
24 5251 238
526 692 145
1259 92 182
4889 8512 262
154672 127255 375
149268 398059 443
955130 996249 458
213269 278405 443
649818 29760 509
435630 709407 509
565502 5443 470
58900 310819 443
555 489 142
1911 6478 262
65 484 144
98 989 179
646 6465 262
162 798 171
6452 6489 169
87 987 179
561 452 142
6465 2658 262
1648 4897 238
45 4723 238
468 7894 262
4652 789 238
12 78 116
156 14 122
495 789 171
13 456 144
6874 4592 262
46 1652 182
4897 1654 238
1320 9540 262
4950 8795 262
40 50 110
540 498 124
8975 4905 262
980 405 179
506 13 144
1 1 1
7806 466 262
654 7891 262
654 684 145
65 745 171
9840 6879 260
57 98 119
651 7894 262
98156 98165 160
89165 63208 351
6542 6540 138
6523 7895 257
65462 49875 340
1352 8745 262
1320 7520 262
963 369 179
862 268 171
147 132 117
832 955 179
2678 8258 262
281 345 144
8359 713 262
569 5078 238
281 414 144
4956 4951 135
1620 4987 238
1674 4952 238
4987 1612 238
123 123 47
426 420 59
420 420 41
69 69 15
852 745 153
41652 49869 314
4651 7894 262
5132 8497 262
1262 7815 262
512 452 142
9875 5612 262
519 498 124
2168 4465 238
5161 4875 210
12 487 144
5116 7485 262
89412 49563 351
9875 4952 262
162 784 171
596 855 171
498 4562 238
978 489 179
653 498 145
6512 4852 262
12365 48954 324
5623 8652 262
4652 8975 262
65211 78105 351
65234 48951 340
95462 98563 297
9845 7845 260
6541 4895 262
7845 4952 262
6513 9875 260
6510 6045 262
23 27 112
23 27 112
1652 7841 262
741 1024 179
5519 7410 262
4952 7521 262
32 41 110
41 32 110
591 785 171
16 895 179
12 1652 182
1 1 1
1 2 2
1 3 8
1 4 8
1 5 8
1 6 9
1 7 17
1 8 17
1 9 20
1 10 20
1 11 20
1 12 20
1 13 20
1 14 20
1 15 20
1 16 20
1 17 20
1 18 21
1 19 21
1 20 21
1 21 21
1 22 21
1 23 21
1 24 21
1 25 24
1 26 24
1 27 112
1 28 112
1 29 112
1 30 112
1 850 171
1 900 179
1 950 179
1 1000 179
1 2000 182
1 3000 217
1 4000 238
1 5000 238
1 6000 238
1 7000 262
1 8000 262
1 9000 262
1 10000 262
1 11000 268
84162 45613 351
59484 49851 340
16511 18952 279
19562 26548 282
16542 35546 311
35426 48915 324
16234 42316 324
85642 95487 333
46513 75215 340
48913 65482 340
65548 54123 335
15642 19562 279
19855 15684 279
78945 86452 320
54623 78491 351
56123 49513 340
85623 75642 351
68759 75684 325
95456 89465 333
63215 47652 340
26453 23154 282
13524 24152 282
1230 12346 268
46512 35421 324
65324 56845 335
46852 48652 314
32108 32054 192
102 1254 182
48956 74895 340
6532 5654 262
6842 4895 262
64628 65642 268
32045 44951 324
32105 45032 324
320 4561 238
213 489 144
468 462 129
4651 485 238
6512 456 262
652 4891 238
642 7896 262
654 3218 217
986 3421 217
6542 7584 257
462 451 129
65138 45120 340
